ParteC/simulation/qsim/restador_completo.msim.vcd
$comment
	File created using the following command:
		vcd file restador_completo.msim.vcd -direction
$end
$date
	Tue Nov 05 14:09:01 2024
$end
$version
	ModelSim Version 10.1d
$end
$timescale
	1ps
$end
$scope module Block1_vlg_vec_tst $end
$var reg 1 ! A0 $end
$var reg 1 " A1 $end
$var reg 1 # A2 $end
$var reg 1 $ A3 $end
$var reg 1 % B0 $end
$var reg 1 & B1 $end
$var reg 1 ' B2 $end
$var reg 1 ( B3 $end
$var reg 1 ) clock $end
$var wire 1 * B $end
$var wire 1 + Q0 $end
$var wire 1 , Q1 $end
$var wire 1 - Q2 $end
$var wire 1 . Q3 $end
$var wire 1 / sampler $end
$scope module i1 $end
$var wire 1 0 gnd $end
$var wire 1 1 vcc $end
$var wire 1 2 unknown $end
$var tri1 1 3 devclrn $end
$var tri1 1 4 devpor $end
$var tri1 1 5 devoe $end
$var wire 1 6 inst9|Q~q $end
$var wire 1 7 inst12|Q~q $end
$var wire 1 8 B2~input_o $end
$var wire 1 9 B3~input_o $end
$var wire 1 : inst9|Q~feeder_combout $end
$var wire 1 ; inst12|Q~feeder_combout $end
$var wire 1 < Q0~output_o $end
$var wire 1 = Q1~output_o $end
$var wire 1 > Q3~output_o $end
$var wire 1 ? B~output_o $end
$var wire 1 @ Q2~output_o $end
$var wire 1 A clock~input_o $end
$var wire 1 B clock~inputclkctrl_outclk $end
$var wire 1 C A0~input_o $end
$var wire 1 D inst2|Q~feeder_combout $end
$var wire 1 E inst2|Q~q $end
$var wire 1 F B0~input_o $end
$var wire 1 G inst3|Q~feeder_combout $end
$var wire 1 H inst3|Q~q $end
$var wire 1 I inst|f~0_combout $end
$var wire 1 J inst13|Q~q $end
$var wire 1 K A1~input_o $end
$var wire 1 L inst5|Q~feeder_combout $end
$var wire 1 M inst5|Q~q $end
$var wire 1 N B1~input_o $end
$var wire 1 O inst6|Q~feeder_combout $end
$var wire 1 P inst6|Q~q $end
$var wire 1 Q inst4|f~0_combout $end
$var wire 1 R inst14|Q~q $end
$var wire 1 S A3~input_o $end
$var wire 1 T inst11|Q~q $end
$var wire 1 U A2~input_o $end
$var wire 1 V inst8|Q~feeder_combout $end
$var wire 1 W inst8|Q~q $end
$var wire 1 X inst4|bout~0_combout $end
$var wire 1 Y inst7|bout~0_combout $end
$var wire 1 Z inst10|f~combout $end
$var wire 1 [ inst16|Q~q $end
$var wire 1 \ inst10|bout~0_combout $end
$var wire 1 ] inst17|Q~q $end
$var wire 1 ^ inst7|f~combout $end
$var wire 1 _ inst15|Q~q $end
$upscope $end
$upscope $end
$enddefinitions $end
#0
$dumpvars
0!
0"
0#
0$
0%
0&
0'
0(
0)
x*
x+
x,
x-
x.
x/
00
11
x2
13
14
15
06
07
08
09
x:
x;
x<
x=
x>
x?
x@
0A
xB
0C
xD
0E
0F
xG
0H
xI
0J
0K
xL
0M
0N
xO
0P
xQ
0R
0S
0T
0U
xV
0W
xX
xY
xZ
0[
x\
0]
x^
0_
$end
#173
0B
#796
0I
#798
0X
#993
0Q
#1178
0Y
0^
#1556
0Z
#1559
0\
#2726
0@
0-
#2958
0=
0,
#3473
0<
0+
#3681
0>
0.
#3870
0:
#3913
0?
0*
#3920
0V
#3964
0;
#3973
0D
#4200
0G
#4203
0L
#5000
1)
0/
#5358
0O
#5819
1A
#6006
1B
#10000
0)
1/
#10924
0A
#11097
0B
#15000
1)
0/
#15819
1A
#16006
1B
#20000
1!
1&
0)
1/
#20786
1C
#20796
1N
#20924
0A
#21097
0B
#24496
1D
#25000
1)
0/
#25789
1O
#25819
1A
#26006
1B
#28410
1E
1P
#28974
1X
#29018
1Q
#29163
1I
#29342
1Y
#29343
1^
#29711
1Z
#29712
1\
#30000
0)
1/
#30924
0A
#31097
0B
#35000
1)
0/
#35819
1A
#36006
1B
#38410
1J
1R
1[
1]
1_
#40000
0)
1/
#40924
0A
#41097
0B
#41154
1@
1-
#41415
1=
1,
#41973
1<
1+
#42108
1>
1.
#42367
1?
1*
#45000
1)
0/
#45819
1A
#46006
1B
#50000
0)
1/
#50924
0A
#51097
0B
#55000
1)
0/
#55819
1A
#56006
1B
#60000
0)
1/
#60924
0A
#61097
0B
#65000
1)
0/
#65819
1A
#66006
1B
#70000
0)
1/
#70924
0A
#71097
0B
#75000
1)
0/
#75819
1A
#76006
1B
#80000
0)
1/
#80924
0A
#81097
0B
#85000
1)
0/
#85819
1A
#86006
1B
#90000
0)
1/
#90924
0A
#91097
0B
#95000
1)
0/
#95819
1A
#96006
1B
#100000
1#
0)
1/
#100806
1U
#100924
0A
#101097
0B
#104526
1V
#105000
1)
0/
#105819
1A
#106006
1B
#108410
1W
#109148
0Y
#109150
0^
#109526
0Z
#109529
0\
#110000
0)
1/
#110924
0A
#111097
0B
#115000
1)
0/
#115819
1A
#116006
1B
#118410
0[
0]
0_
#120000
0)
1/
#120924
0A
#121097
0B
#121136
0@
0-
#122091
0>
0.
#122323
0?
0*
#125000
1)
0/
#125819
1A
#126006
1B
#130000
0)
1/
#130924
0A
#131097
0B
#135000
1)
0/
#135819
1A
#136006
1B
#140000
0)
1/
#140924
0A
#141097
0B
#145000
1)
0/
#145819
1A
#146006
1B
#150000
0)
1/
#150924
0A
#151097
0B
#155000
1)
0/
#155819
1A
#156006
1B
#160000
0)
1/
#160924
0A
#161097
0B
#165000
1)
0/
#165819
1A
#166006
1B
#170000
0)
1/
#170924
0A
#171097
0B
#175000
1)
0/
#175819
1A
#176006
1B
#180000
0)
1/
#180924
0A
#181097
0B
#185000
1)
0/
#185819
1A
#186006
1B
#190000
1"
1'
0)
1/
#190766
18
1K
#190924
0A
#191097
0B
#194457
1:
#194778
1L
#195000
1)
0/
#195819
1A
#196006
1B
#198410
16
1M
#198828
0X
#199342
0Q
#200000
0)
1/
#200924
0A
#201097
0B
#205000
1)
0/
#205819
1A
#206006
1B
#208410
0R
#210000
0)
1/
#210924
0A
#211097
0B
#211368
0=
0,
#215000
1)
0/
#215819
1A
#216006
1B
#220000
0)
1/
#220924
0A
#221097
0B
#225000
1)
0/
#225819
1A
#226006
1B
#230000
1%
0!
0)
1/
#230776
1F
#230893
0C
#230924
0A
#231097
0B
#234680
1G
#234866
0D
#235000
1)
0/
#235819
1A
#236006
1B
#238410
0E
1H
#239210
1Q
#239241
1X
#239609
1Y
#239610
1^
#239978
1Z
#239979
1\
#240000
0)
1/
#240924
0A
#241097
0B
#245000
1)
0/
#245819
1A
#246006
1B
#248410
1R
1[
1]
1_
#250000
0&
0)
1/
#250903
0N
#250924
0A
#251097
0B
#251154
1@
1-
#251415
1=
1,
#252108
1>
1.
#252367
1?
1*
#255000
1)
0/
#255819
1A
#256006
1B
#256261
0O
#258410
0P
#259049
0X
#259053
0Q
#259429
0Y
0^
#259807
0Z
#259810
0\
#260000
0)
1/
#260924
0A
#261097
0B
#265000
1)
0/
#265819
1A
#266006
1B
#268410
0R
0[
0]
0_
#270000
0)
1/
#270924
0A
#271097
0B
#271136
0@
0-
#271368
0=
0,
#272091
0>
0.
#272323
0?
0*
#275000
1)
0/
#275819
1A
#276006
1B
#280000
0)
1/
#280924
0A
#281097
0B
#285000
1)
0/
#285819
1A
#286006
1B
#290000
1$
0)
1/
#290766
1S
#290924
0A
#291097
0B
#295000
1)
0/
#295819
1A
#296006
1B
#298410
1T
#299137
1Z
#300000
0)
1/
#300924
0A
#301097
0B
#305000
1)
0/
#305819
1A
#306006
1B
#308410
1[
#310000
0)
1/
#310924
0A
#311097
0B
#312108
1>
1.
#315000
1)
0/
#315819
1A
#316006
1B
#320000
0)
1/
#320924
0A
#321097
0B
#325000
1)
0/
#325819
1A
#326006
1B
#330000
0)
1/
#330924
0A
#331097
0B
#335000
1)
0/
#335819
1A
#336006
1B
#340000
0#
0)
1/
#340913
0U
#340924
0A
#341097
0B
#344833
0V
#345000
1)
0/
#345819
1A
#346006
1B
#348410
0W
#349235
1Y
#349237
1^
#349588
0Z
#350000
0)
1/
#350924
0A
#351097
0B
#355000
1)
0/
#355819
1A
#356006
1B
#358410
0[
1_
#360000
0)
1/
#360924
0A
#361097
0B
#361154
1@
1-
#362091
0>
0.
#365000
1)
0/
#365819
1A
#366006
1B
#370000
0)
1/
#370924
0A
#371097
0B
#375000
1)
0/
#375819
1A
#376006
1B
#380000
1(
0)
1/
#380806
19
#380924
0A
#381097
0B
#384584
1;
#385000
1)
0/
#385819
1A
#386006
1B
#388410
17
#389125
1Z
1\
#390000
0)
1/
#390924
0A
#391097
0B
#395000
1)
0/
#395819
1A
#396006
1B
#398410
1[
1]
#400000
0)
1/
#400924
0A
#401097
0B
#402108
1>
1.
#402367
1?
1*
#405000
1)
0/
#405819
1A
#406006
1B
#410000
0)
1/
#410924
0A
#411097
0B
#415000
1)
0/
#415819
1A
#416006
1B
#420000
0)
1/
#420924
0A
#421097
0B
#425000
1)
0/
#425819
1A
#426006
1B
#430000
0'
0)
1/
#430873
08
#430924
0A
#431097
0B
#434743
0:
#435000
1)
0/
#435819
1A
#436006
1B
#438410
06
#439208
0Y
#439241
0^
#439586
0Z
#439589
0\
#440000
0)
1/
#440924
0A
#441097
0B
#445000
1)
0/
#445819
1A
#446006
1B
#448410
0[
0]
0_
#450000
0)
1/
#450924
0A
#451097
0B
#451136
0@
0-
#452091
0>
0.
#452323
0?
0*
#455000
1)
0/
#455819
1A
#456006
1B
#460000
0"
0)
1/
#460873
0K
#460924
0A
#461097
0B
#465000
1)
0/
#465076
0L
#465819
1A
#466006
1B
#468410
0M
#468917
1X
#469285
1Y
#469286
1^
#469389
1Q
#469654
1Z
#469655
1\
#470000
0)
1/
#470924
0A
#471097
0B
#475000
1)
0/
#475819
1A
#476006
1B
#478410
1R
1[
1]
1_
#480000
0%
0)
1/
#480883
0F
#480924
0A
#481097
0B
#481154
1@
1-
#481415
1=
1,
#482108
1>
1.
#482367
1?
1*
#485000
1)
0/
#485083
0G
#485819
1A
#486006
1B
#488410
0H
#489058
0I
#489208
0X
#489403
0Q
#489588
0Y
0^
#489966
0Z
#489969
0\
#490000
0)
1/
#490924
0A
#491097
0B
#495000
1)
0/
#495819
1A
#496006
1B
#498410
0J
0R
0[
0]
0_
#500000
0)
1/
#500924
0A
#501097
0B
#501136
0@
0-
#501368
0=
0,
#501883
0<
0+
#502091
0>
0.
#502323
0?
0*
#505000
1)
0/
#505819
1A
#506006
1B
#510000
0)
1/
#510924
0A
#511097
0B
#515000
1)
0/
#515819
1A
#516006
1B
#520000
0)
1/
#520924
0A
#521097
0B
#525000
1)
0/
#525819
1A
#526006
1B
#530000
0)
1/
#530924
0A
#531097
0B
#535000
1)
0/
#535819
1A
#536006
1B
#540000
0$
0)
1/
#540873
0S
#540924
0A
#541097
0B
#545000
1)
0/
#545819
1A
#546006
1B
#548410
0T
#549199
1Z
#549200
1\
#550000
0)
1/
#550924
0A
#551097
0B
#555000
1)
0/
#555819
1A
#556006
1B
#558410
1[
1]
#560000
0)
1/
#560924
0A
#561097
0B
#562108
1>
1.
#562367
1?
1*
#565000
1)
0/
#565819
1A
#566006
1B
#570000
0)
1/
#570924
0A
#571097
0B
#575000
1)
0/
#575819
1A
#576006
1B
#580000
0)
1/
#580924
0A
#581097
0B
#585000
1)
0/
#585819
1A
#586006
1B
#590000
0)
1/
#590924
0A
#591097
0B
#595000
1)
0/
#595819
1A
#596006
1B
#600000
0)
1/
#600924
0A
#601097
0B
#605000
1)
0/
#605819
1A
#606006
1B
#610000
0)
1/
#610924
0A
#611097
0B
#615000
1)
0/
#615819
1A
#616006
1B
#620000
0)
1/
#620924
0A
#621097
0B
#625000
1)
0/
#625819
1A
#626006
1B
#630000
0)
1/
#630924
0A
#631097
0B
#635000
1)
0/
#635819
1A
#636006
1B
#640000
0(
0)
1/
#640913
09
#640924
0A
#641097
0B
#644877
0;
#645000
1)
0/
#645819
1A
#646006
1B
#648410
07
#649229
0\
#649231
0Z
#650000
0)
1/
#650924
0A
#651097
0B
#655000
1)
0/
#655819
1A
#656006
1B
#658410
0[
0]
#660000
0)
1/
#660924
0A
#661097
0B
#662091
0>
0.
#662323
0?
0*
#665000
1)
0/
#665819
1A
#666006
1B
#670000
0)
1/
#670924
0A
#671097
0B
#675000
1)
0/
#675819
1A
#676006
1B
#680000
0)
1/
#680924
0A
#681097
0B
#685000
1)
0/
#685819
1A
#686006
1B
#690000
0)
1/
#690924
0A
#691097
0B
#695000
1)
0/
#695819
1A
#696006
1B
#700000
0)
1/
#700924
0A
#701097
0B
#705000
1)
0/
#705819
1A
#706006
1B
#710000
0)
1/
#710924
0A
#711097
0B
#715000
1)
0/
#715819
1A
#716006
1B
#720000
0)
1/
#720924
0A
#721097
0B
#725000
1)
0/
#725819
1A
#726006
1B
#730000
0)
1/
#730924
0A
#731097
0B
#735000
1)
0/
#735819
1A
#736006
1B
#740000
0)
1/
#740924
0A
#741097
0B
#745000
1)
0/
#745819
1A
#746006
1B
#750000
0)
1/
#750924
0A
#751097
0B
#755000
1)
0/
#755819
1A
#756006
1B
#760000
0)
1/
#760924
0A
#761097
0B
#765000
1)
0/
#765819
1A
#766006
1B
#770000
0)
1/
#770924
0A
#771097
0B
#775000
1)
0/
#775819
1A
#776006
1B
#780000
0)
1/
#780924
0A
#781097
0B
#785000
1)
0/
#785819
1A
#786006
1B
#790000
0)
1/
#790924
0A
#791097
0B
#795000
1)
0/
#795819
1A
#796006
1B
#800000
0)
1/
#800924
0A
#801097
0B
#805000
1)
0/
#805819
1A
#806006
1B
#810000
0)
1/
#810924
0A
#811097
0B
#815000
1)
0/
#815819
1A
#816006
1B
#820000
0)
1/
#820924
0A
#821097
0B
#825000
1)
0/
#825819
1A
#826006
1B
#830000
0)
1/
#830924
0A
#831097
0B
#835000
1)
0/
#835819
1A
#836006
1B
#840000
0)
1/
#840924
0A
#841097
0B
#845000
1)
0/
#845819
1A
#846006
1B
#850000
0)
1/
#850924
0A
#851097
0B
#855000
1)
0/
#855819
1A
#856006
1B
#860000
0)
1/
#860924
0A
#861097
0B
#865000
1)
0/
#865819
1A
#866006
1B
#870000
0)
1/
#870924
0A
#871097
0B
#875000
1)
0/
#875819
1A
#876006
1B
#880000
0)
1/
#880924
0A
#881097
0B
#885000
1)
0/
#885819
1A
#886006
1B
#890000
0)
1/
#890924
0A
#891097
0B
#895000
1)
0/
#895819
1A
#896006
1B
#900000
0)
1/
#900924
0A
#901097
0B
#905000
1)
0/
#905819
1A
#906006
1B
#910000
0)
1/
#910924
0A
#911097
0B
#915000
1)
0/
#915819
1A
#916006
1B
#920000
0)
1/
#920924
0A
#921097
0B
#925000
1)
0/
#925819
1A
#926006
1B
#930000
0)
1/
#930924
0A
#931097
0B
#935000
1)
0/
#935819
1A
#936006
1B
#940000
0)
1/
#940924
0A
#941097
0B
#945000
1)
0/
#945819
1A
#946006
1B
#950000
0)
1/
#950924
0A
#951097
0B
#955000
1)
0/
#955819
1A
#956006
1B
#960000
0)
1/
#960924
0A
#961097
0B
#965000
1)
0/
#965819
1A
#966006
1B
#970000
0)
1/
#970924
0A
#971097
0B
#975000
1)
0/
#975819
1A
#976006
1B
#980000
0)
1/
#980924
0A
#981097
0B
#985000
1)
0/
#985819
1A
#986006
1B
#990000
0)
1/
#990924
0A
#991097
0B
#995000
1)
0/
#995819
1A
