ParteB/simulation/qsim/D_FF.msim.vcd
$comment
	File created using the following command:
		vcd file D_FF.msim.vcd -direction
$end
$date
	Tue Oct 22 17:24:15 2024
$end
$version
	ModelSim Version 10.1d
$end
$timescale
	1ps
$end
$scope module restador_completo_vlg_vec_tst $end
$var reg 1 ! clk $end
$var reg 1 " in_a $end
$var reg 1 # in_b $end
$var reg 1 $ in_bin $end
$var wire 1 % o_bout $end
$var wire 1 & o_rout $end
$var wire 1 ' sampler $end
$scope module i1 $end
$var wire 1 ( gnd $end
$var wire 1 ) vcc $end
$var wire 1 * unknown $end
$var tri1 1 + devclrn $end
$var tri1 1 , devpor $end
$var tri1 1 - devoe $end
$var wire 1 . o_rout~output_o $end
$var wire 1 / o_bout~output_o $end
$var wire 1 0 clk~input_o $end
$var wire 1 1 in_b~input_o $end
$var wire 1 2 D2|Q~feeder_combout $end
$var wire 1 3 D2|Q~q $end
$var wire 1 4 in_a~input_o $end
$var wire 1 5 D1|Q~q $end
$var wire 1 6 rout~0_combout $end
$var wire 1 7 D5|Q~q $end
$var wire 1 8 in_bin~input_o $end
$var wire 1 9 D3|Q~feeder_combout $end
$var wire 1 : D3|Q~q $end
$var wire 1 ; bout~0_combout $end
$var wire 1 < D4|Q~q $end
$upscope $end
$upscope $end
$enddefinitions $end
#0
$dumpvars
0!
0"
0#
0$
x%
x&
x'
0(
1)
x*
1+
1,
1-
x.
x/
00
01
x2
03
04
05
x6
07
08
x9
0:
x;
0<
$end
#629
0;
#819
06
#3771
0.
0&
#4064
02
#4341
0/
0%
#4536
09
#5000
1!
0'
#5786
10
#10000
0!
1'
#10893
00
#15000
1!
0'
#15786
10
#20000
0!
1'
#20893
00
#25000
1!
0'
#25786
10
#30000
0!
1'
#30893
00
#35000
1!
0'
#35786
10
#40000
0!
1'
#40893
00
#45000
1!
0'
#45786
10
#50000
0!
1'
#50893
00
#55000
1!
0'
#55786
10
#60000
0!
1'
#60893
00
#65000
1!
0'
#65786
10
#70000
0!
1'
#70893
00
#75000
1!
0'
#75786
10
#80000
0!
1'
#80893
00
#85000
1!
0'
#85786
10
#90000
0!
1'
#90893
00
#95000
1!
0'
#95786
10
#100000
0!
1'
#100893
00
#105000
1!
0'
#105786
10
#110000
0!
1'
#110893
00
#115000
1!
0'
#115786
10
#120000
0!
1'
#120893
00
#125000
1$
1!
0'
#125766
18
#125786
10
#130000
0!
1'
#130001
19
#130893
00
#135000
1!
0'
#135786
10
#137523
1:
#137943
1;
#138239
16
#140000
0!
1'
#140893
00
#145000
1!
0'
#145786
10
#147523
17
1<
#150000
0!
1'
#150893
00
#151394
1.
1&
#151946
1/
1%
#155000
1!
0'
#155786
10
#160000
0!
1'
#160893
00
#165000
1!
0'
#165786
10
#170000
0!
1'
#170893
00
#175000
1!
0'
#175786
10
#180000
0!
1'
#180893
00
#185000
1!
0'
#185786
10
#190000
0!
1'
#190893
00
#195000
1!
0'
#195786
10
#200000
0!
1'
#200893
00
#205000
1!
0'
#205786
10
#210000
0!
1'
#210893
00
#215000
1!
0'
#215786
10
#220000
0!
1'
#220893
00
#225000
1!
0'
#225786
10
#230000
0!
1'
#230893
00
#235000
1!
0'
#235786
10
#240000
0!
1'
#240893
00
#245000
1!
0'
#245786
10
#250000
1#
0$
0!
1'
#250806
11
#250873
08
#250893
00
#254578
12
#255000
1!
0'
#255409
09
#255786
10
#257523
13
0:
#260000
0!
1'
#260893
00
#265000
1!
0'
#265786
10
#270000
0!
1'
#270893
00
#275000
1!
0'
#275786
10
#280000
0!
1'
#280893
00
#285000
1!
0'
#285786
10
#290000
0!
1'
#290893
00
#295000
1!
0'
#295786
10
#300000
0!
1'
#300893
00
#305000
1!
0'
#305786
10
#310000
0!
1'
#310893
00
#315000
1!
0'
#315786
10
#320000
0!
1'
#320893
00
#325000
1!
0'
#325786
10
#330000
0!
1'
#330893
00
#335000
1!
0'
#335786
10
#340000
0!
1'
#340893
00
#345000
1!
0'
#345786
10
#350000
0!
1'
#350893
00
#355000
1!
0'
#355786
10
#360000
0!
1'
#360893
00
#365000
1!
0'
#365786
10
#370000
0!
1'
#370893
00
#375000
1$
1!
0'
#375766
18
#375786
10
#380000
0!
1'
#380001
19
#380893
00
#385000
1!
0'
#385786
10
#387523
1:
#388250
06
#390000
0!
1'
#390893
00
#395000
1!
0'
#395786
10
#397523
07
#400000
0!
1'
#400893
00
#401294
0.
0&
#405000
1!
0'
#405786
10
#410000
0!
1'
#410893
00
#415000
1!
0'
#415786
10
#420000
0!
1'
#420893
00
#425000
1!
0'
#425786
10
#430000
0!
1'
#430893
00
#435000
1!
0'
#435786
10
#440000
0!
1'
#440893
00
#445000
1!
0'
#445786
10
#450000
0!
1'
#450893
00
#455000
1!
0'
#455786
10
#460000
0!
1'
#460893
00
#465000
1!
0'
#465786
10
#470000
0!
1'
#470893
00
#475000
1!
0'
#475786
10
#480000
0!
1'
#480893
00
#485000
1!
0'
#485786
10
#490000
0!
1'
#490893
00
#495000
1!
0'
#495786
10
#500000
1"
0#
0$
0!
1'
#500766
14
#500873
08
#500893
00
#500913
01
#504977
02
#505000
1!
0'
#505409
09
#505786
10
#507523
03
15
0:
#508007
0;
#508331
16
#510000
0!
1'
#510893
00
#515000
1!
0'
#515786
10
#517523
17
0<
#520000
0!
1'
#520893
00
#521394
1.
1&
#521864
0/
0%
#525000
1!
0'
#525786
10
#530000
0!
1'
#530893
00
#535000
1!
0'
#535786
10
#540000
0!
1'
#540893
00
#545000
1!
0'
#545786
10
#550000
0!
1'
#550893
00
#555000
1!
0'
#555786
10
#560000
0!
1'
#560893
00
#565000
1!
0'
#565786
10
#570000
0!
1'
#570893
00
#575000
1!
0'
#575786
10
#580000
0!
1'
#580893
00
#585000
1!
0'
#585786
10
#590000
0!
1'
#590893
00
#595000
1!
0'
#595786
10
#600000
0!
1'
#600893
00
#605000
1!
0'
#605786
10
#610000
0!
1'
#610893
00
#615000
1!
0'
#615786
10
#620000
0!
1'
#620893
00
#625000
1$
1!
0'
#625766
18
#625786
10
#630000
0!
1'
#630001
19
#630893
00
#635000
1!
0'
#635786
10
#637523
1:
#638250
06
#640000
0!
1'
#640893
00
#645000
1!
0'
#645786
10
#647523
07
#650000
0!
1'
#650893
00
#651294
0.
0&
#655000
1!
0'
#655786
10
#660000
0!
1'
#660893
00
#665000
1!
0'
#665786
10
#670000
0!
1'
#670893
00
#675000
1!
0'
#675786
10
#680000
0!
1'
#680893
00
#685000
1!
0'
#685786
10
#690000
0!
1'
#690893
00
#695000
1!
0'
#695786
10
#700000
0!
1'
#700893
00
#705000
1!
0'
#705786
10
#710000
0!
1'
#710893
00
#715000
1!
0'
#715786
10
#720000
0!
1'
#720893
00
#725000
1!
0'
#725786
10
#730000
0!
1'
#730893
00
#735000
1!
0'
#735786
10
#740000
0!
1'
#740893
00
#745000
1!
0'
#745786
10
#750000
1#
0$
0!
1'
#750806
11
#750873
08
#750893
00
#754578
12
#755000
1!
0'
#755409
09
#755786
10
#757523
13
0:
#760000
0!
1'
#760893
00
#765000
1!
0'
#765786
10
#770000
0!
1'
#770893
00
#775000
1!
0'
#775786
10
#780000
0!
1'
#780893
00
#785000
1!
0'
#785786
10
#790000
0!
1'
#790893
00
#795000
1!
0'
#795786
10
#800000
0!
1'
#800893
00
#805000
1!
0'
#805786
10
#810000
0!
1'
#810893
00
#815000
1!
0'
#815786
10
#820000
0!
1'
#820893
00
#825000
1!
0'
#825786
10
#830000
0!
1'
#830893
00
#835000
1!
0'
#835786
10
#840000
0!
1'
#840893
00
#845000
1!
0'
#845786
10
#850000
0!
1'
#850893
00
#855000
1!
0'
#855786
10
#860000
0!
1'
#860893
00
#865000
1!
0'
#865786
10
#870000
0!
1'
#870893
00
#875000
1$
1!
0'
#875766
18
#875786
10
#880000
0!
1'
#880001
19
#880893
00
#885000
1!
0'
#885786
10
#887523
1:
#887943
1;
#888239
16
#890000
0!
1'
#890893
00
#895000
1!
0'
#895786
10
#897523
17
1<
#900000
0!
1'
#900893
00
#901394
1.
1&
#901946
1/
1%
#905000
1!
0'
#905786
10
#910000
0!
1'
#910893
00
#915000
1!
0'
#915786
10
#920000
0!
1'
#920893
00
#925000
1!
0'
#925786
10
#930000
0!
1'
#930893
00
#935000
1!
0'
#935786
10
#940000
0!
1'
#940893
00
#945000
1!
0'
#945786
10
#950000
0!
1'
#950893
00
#955000
1!
0'
#955786
10
#960000
0!
1'
#960893
00
#965000
1!
0'
#965786
10
#970000
0!
1'
#970893
00
#975000
1!
0'
#975786
10
#980000
0!
1'
#980893
00
#985000
1!
0'
#985786
10
#990000
0!
1'
#990893
00
#995000
1!
0'
#995786
10
